<?xml version="1.0" encoding="UTF-8" standalone="no"?>
<!-- Generator: Adobe Illustrator 17.0.1, SVG Export Plug-In . SVG Version: 6.00 Build 0)  -->

<svg
   xmlns:dc="http://purl.org/dc/elements/1.1/"
   xmlns:cc="http://creativecommons.org/ns#"
   xmlns:rdf="http://www.w3.org/1999/02/22-rdf-syntax-ns#"
   xmlns:svg="http://www.w3.org/2000/svg"
   xmlns="http://www.w3.org/2000/svg"
   xmlns:sodipodi="http://sodipodi.sourceforge.net/DTD/sodipodi-0.dtd"
   xmlns:inkscape="http://www.inkscape.org/namespaces/inkscape"
   version="1.1"
   x="0px"
   y="0px"
   width="200"
   height="200"
   viewBox="0 0 200 200"
   enable-background="new 0 0 86 86"
   xml:space="preserve"
   id="svg2"
   inkscape:version="0.92.4 (unknown)"
   sodipodi:docname="cover-background.svg"><metadata
     id="metadata23"><rdf:RDF><cc:Work
         rdf:about=""><dc:format>image/svg+xml</dc:format><dc:type
           rdf:resource="http://purl.org/dc/dcmitype/StillImage" /><dc:title></dc:title></cc:Work></rdf:RDF></metadata><defs
     id="defs21"><linearGradient
       y2="12.8067"
       x2="73.193398"
       y1="73.193703"
       x1="12.8064"
       gradientUnits="userSpaceOnUse"
       id="SVGID_1_"><stop
         id="stop7"
         style="stop-color:#25556f;stop-opacity:0.96862745"
         offset="0" /><stop
         id="stop9"
         style="stop-color:#007abc;stop-opacity:1"
         offset="1" /></linearGradient><clipPath
       id="clipPath3372"
       clipPathUnits="userSpaceOnUse"><path
         inkscape:connector-curvature="0"
         id="path3374"
         d="M 1776.56,314.355 1577.99,115.773 1379.41,314.355 1577.99,512.93 1776.56,314.355" /></clipPath><linearGradient
       id="linearGradient4689"><stop
         id="stop4691"
         offset="0"
         style="stop-color:#5a9fd4;stop-opacity:1;" /><stop
         id="stop4693"
         offset="1"
         style="stop-color:#306998;stop-opacity:1;" /></linearGradient><linearGradient
       id="linearGradient4671"><stop
         id="stop4673"
         offset="0"
         style="stop-color:#ffd43b;stop-opacity:1;" /><stop
         id="stop4675"
         offset="1"
         style="stop-color:#ffe873;stop-opacity:1" /></linearGradient></defs><sodipodi:namedview
     pagecolor="#ffffff"
     bordercolor="#666666"
     borderopacity="1"
     objecttolerance="10"
     gridtolerance="10"
     guidetolerance="10"
     inkscape:pageopacity="0"
     inkscape:pageshadow="2"
     inkscape:window-width="1920"
     inkscape:window-height="1015"
     id="namedview19"
     showgrid="false"
     inkscape:zoom="3.1311526"
     inkscape:cx="39.021099"
     inkscape:cy="66.495003"
     inkscape:window-x="0"
     inkscape:window-y="41"
     inkscape:window-maximized="1"
     inkscape:current-layer="svg2"
     inkscape:snap-bbox="true"
     inkscape:snap-bbox-edge-midpoints="false"
     inkscape:bbox-nodes="false"
     inkscape:snap-smooth-nodes="false"
     inkscape:object-paths="false"
     inkscape:bbox-paths="false"
     inkscape:snap-bbox-midpoints="false" /><g
     id="Layer_2"
     display="none"
     style="display:none"
     transform="translate(0,114)" /><g
     aria-label="#"
     style="font-style:normal;font-variant:normal;font-weight:bold;font-stretch:normal;font-size:40px;line-height:1.25;font-family:'DejaVu Sans Mono';-inkscape-font-specification:'DejaVu Sans Mono, Bold';font-variant-ligatures:normal;font-variant-caps:normal;font-variant-numeric:normal;font-feature-settings:normal;text-align:start;letter-spacing:0px;word-spacing:0px;writing-mode:lr-tb;text-anchor:start;display:inline;opacity:1;fill:#ffffff;fill-opacity:1;stroke:none"
     id="text891"
     transform="matrix(6.2670488,0,0,6.2670488,-155.4756,-150.8498)"><path
       style="fill:#ffffff;fill-opacity:1"
       d="m 42.552006,25.671314 c -0.61849,2.434896 -1.236979,4.869792 -1.855469,7.304688 1.321615,0 2.643229,0 3.964844,0 0.611979,-2.434896 1.223958,-4.869792 1.835937,-7.304688 1.458333,0 2.916667,0 4.375,0 -0.63151,2.434896 -1.263021,4.869792 -1.894531,7.304688 1.25651,0 2.513021,0 3.769531,0 0,1.399739 0,2.799479 0,4.199218 -1.601562,0 -3.203125,0 -4.804687,0 -0.481771,1.907552 -0.963542,3.815105 -1.445313,5.722657 1.334636,0 2.669271,0 4.003907,0 0,1.399739 0,2.799479 0,4.199218 -1.679688,0 -3.359375,0 -5.039063,0 -0.611979,2.428386 -1.223958,4.856771 -1.835937,7.285157 -1.438802,0 -2.877605,0 -4.316407,0 0.611979,-2.428386 1.223959,-4.856771 1.835938,-7.285157 -1.334635,0 -2.669271,0 -4.003906,0 -0.611979,2.428386 -1.223959,4.856771 -1.835938,7.285157 -1.438802,0 -2.877604,0 -4.316406,0 0.611979,-2.428386 1.223958,-4.856771 1.835937,-7.285157 -1.347656,0 -2.695312,0 -4.042968,0 0,-1.399739 0,-2.799479 0,-4.199218 1.692708,0 3.385417,0 5.078125,0 0.481771,-1.907552 0.963541,-3.815105 1.445312,-5.722657 -1.425781,0 -2.851563,0 -4.277344,0 0,-1.399739 0,-2.799479 0,-4.199218 1.783854,0 3.567709,0 5.351563,0 0.611979,-2.434896 1.223958,-4.869792 1.835937,-7.304688 1.445313,0 2.890625,0 4.335938,0 z m 1.074219,11.503906 c -1.334636,0 -2.669271,0 -4.003907,0 -0.481771,1.907552 -0.963541,3.815105 -1.445312,5.722657 1.334635,0 2.669271,0 4.003906,0 0.481771,-1.907552 0.963542,-3.815105 1.445313,-5.722657 z"
       id="path893"
       inkscape:connector-curvature="0" /></g></svg>